mc20_13TeV.304014.MadGraphPythia8EvtGen_A14NNPDF23_3top_SM.deriv.DAOD_PHYS.e4324_s3681_r13144_p5631        
mc20_13TeV.304014.MadGraphPythia8EvtGen_A14NNPDF23_3top_SM.deriv.DAOD_PHYS.e4324_s3681_r13145_p5631        
mc20_13TeV.304014.MadGraphPythia8EvtGen_A14NNPDF23_3top_SM.deriv.DAOD_PHYS.e4324_s3681_r13167_p5631
mc20_13TeV:mc20_13TeV.412043.aMcAtNloPythia8EvtGen_A14NNPDF31_SM4topsNLO.deriv.DAOD_PHYS.e7101_a899_r13144_p5631                          	
mc20_13TeV:mc20_13TeV.412043.aMcAtNloPythia8EvtGen_A14NNPDF31_SM4topsNLO.deriv.DAOD_PHYS.e7101_a899_r13145_p5631                          	
mc20_13TeV:mc20_13TeV.412043.aMcAtNloPythia8EvtGen_A14NNPDF31_SM4topsNLO.deriv.DAOD_PHYS.e7101_a899_r13167_p5631                          	
