mc20_13TeV.410408.aMcAtNloPythia8EvtGen_tWZ_Ztoll_minDR1.deriv.DAOD_PHYS.e6423_s3681_r13144_p5631        
mc20_13TeV.410408.aMcAtNloPythia8EvtGen_tWZ_Ztoll_minDR1.deriv.DAOD_PHYS.e6423_s3681_r13145_p5631        
mc20_13TeV.410408.aMcAtNloPythia8EvtGen_tWZ_Ztoll_minDR1.deriv.DAOD_PHYS.e6423_s3681_r13167_p5631        
mc20_13TeV.410081.MadGraphPythia8EvtGen_A14NNPDF23_ttbarWW.deriv.DAOD_PHYS.e4111_s3681_r13144_p5631        
mc20_13TeV.410081.MadGraphPythia8EvtGen_A14NNPDF23_ttbarWW.deriv.DAOD_PHYS.e4111_s3681_r13145_p5631        
mc20_13TeV.410081.MadGraphPythia8EvtGen_A14NNPDF23_ttbarWW.deriv.DAOD_PHYS.e4111_s3681_r13167_p5631   
